plru_debug.out
vvp -n plru.vvp
VCD info: dumpfile dump.vcd opened for output.
t= 0: address xxxx hit x
	[0][0] tag=xx valid=0 used=0
	[0][1] tag=xx valid=0 used=0
	[0][2] tag=xx valid=0 used=0
	[0][3] tag=xx valid=0 used=0
t=10: address 0000 hit 0
	[0][0] tag=00 valid=1 used=1
	[0][1] tag=xx valid=0 used=0
	[0][2] tag=xx valid=0 used=0
	[0][3] tag=xx valid=0 used=0
t=20: address 0010 hit 0
	[0][0] tag=00 valid=1 used=1
	[0][1] tag=xx valid=0 used=0
	[0][2] tag=xx valid=0 used=0
	[0][3] tag=xx valid=0 used=0
t=30: address 0000 hit 1
	[0][0] tag=00 valid=1 used=1
	[0][1] tag=xx valid=0 used=0
	[0][2] tag=xx valid=0 used=0
	[0][3] tag=xx valid=0 used=0
t=40: address 0010 hit 1
	[0][0] tag=00 valid=1 used=1
	[0][1] tag=xx valid=0 used=0
	[0][2] tag=xx valid=0 used=0
	[0][3] tag=xx valid=0 used=0
t=50: address 0100 hit 0
	[0][0] tag=00 valid=1 used=1
	[0][1] tag=01 valid=1 used=1
	[0][2] tag=xx valid=0 used=0
	[0][3] tag=xx valid=0 used=0
t=60: address 0200 hit 0
	[0][0] tag=00 valid=1 used=1
	[0][1] tag=01 valid=1 used=1
	[0][2] tag=02 valid=1 used=1
	[0][3] tag=xx valid=0 used=0
t=70: address 0300 hit 0
	[0][0] tag=00 valid=1 used=0
	[0][1] tag=01 valid=1 used=0
	[0][2] tag=02 valid=1 used=0
	[0][3] tag=03 valid=1 used=1
t=80: address 0400 hit 0
	[0][0] tag=04 valid=1 used=1
	[0][1] tag=01 valid=1 used=0
	[0][2] tag=02 valid=1 used=0
	[0][3] tag=03 valid=1 used=1
t=90: address 0100 hit 1
	[0][0] tag=04 valid=1 used=1
	[0][1] tag=01 valid=1 used=1
	[0][2] tag=02 valid=1 used=0
	[0][3] tag=03 valid=1 used=1
t=100: address 0300 hit 1
	[0][0] tag=04 valid=1 used=1
	[0][1] tag=01 valid=1 used=1
	[0][2] tag=02 valid=1 used=0
	[0][3] tag=03 valid=1 used=1
t=120: address 0000 hit 0
	[0][0] tag=04 valid=1 used=0
	[0][1] tag=01 valid=1 used=0
	[0][2] tag=00 valid=1 used=1
	[0][3] tag=03 valid=1 used=0
t=130: address 0200 hit 0
	[0][0] tag=02 valid=1 used=1
	[0][1] tag=01 valid=1 used=0
	[0][2] tag=00 valid=1 used=1
	[0][3] tag=03 valid=1 used=0
